{
    "A": 1.494e-05, 
    "B": 5.54, 
    "C": 3.962e-05, 
    "Tint": -20, 
    "U": 0.44, 
    "alfa": 0.215, 
    "carb_weight": 7450, 
    "clients": 15, 
    "cp": 1.6, 
    "days": 329, 
    "demands": [
        0, 
        2, 
        2, 
        2, 
        2, 
        2, 
        2, 
        2, 
        2, 
        2, 
        2, 
        2, 
        2, 
        2, 
        2
    ], 
    "distances": [
        [
            0, 
            8, 
            41, 
            37, 
            46, 
            19, 
            14, 
            46, 
            54, 
            22, 
            49, 
            7, 
            48, 
            34, 
            50
        ], 
        [
            8, 
            0, 
            35, 
            29, 
            37, 
            11, 
            7, 
            39, 
            49, 
            18, 
            41, 
            2, 
            40, 
            27, 
            45
        ], 
        [
            41, 
            35, 
            0, 
            44, 
            32, 
            34, 
            29, 
            17, 
            15, 
            18, 
            23, 
            38, 
            40, 
            10, 
            9
        ], 
        [
            37, 
            29, 
            44, 
            0, 
            20, 
            19, 
            27, 
            35, 
            58, 
            36, 
            33, 
            30, 
            17, 
            34, 
            51
        ], 
        [
            46, 
            37, 
            32, 
            20, 
            0, 
            27, 
            32, 
            18, 
            44, 
            34, 
            14, 
            39, 
            8, 
            25, 
            37
        ], 
        [
            19, 
            11, 
            34, 
            19, 
            27, 
            0, 
            9, 
            32, 
            48, 
            20, 
            33, 
            12, 
            30, 
            24, 
            43
        ], 
        [
            14, 
            7, 
            29, 
            27, 
            32, 
            9, 
            0, 
            32, 
            44, 
            12, 
            35, 
            9, 
            36, 
            21, 
            39
        ], 
        [
            46, 
            39, 
            17, 
            35, 
            18, 
            32, 
            32, 
            0, 
            26, 
            27, 
            6, 
            41, 
            26, 
            14, 
            20
        ], 
        [
            54, 
            49, 
            15, 
            58, 
            44, 
            48, 
            44, 
            26, 
            0, 
            32, 
            31, 
            52, 
            52, 
            25, 
            6
        ], 
        [
            22, 
            18, 
            18, 
            36, 
            34, 
            20, 
            12, 
            27, 
            32, 
            0, 
            31, 
            20, 
            40, 
            13, 
            28
        ], 
        [
            49, 
            41, 
            23, 
            33, 
            14, 
            33, 
            35, 
            6, 
            31, 
            31, 
            0, 
            43, 
            22, 
            19, 
            25
        ], 
        [
            7, 
            2, 
            38, 
            30, 
            39, 
            12, 
            9, 
            41, 
            52, 
            20, 
            43, 
            0, 
            42, 
            29, 
            47
        ], 
        [
            48, 
            40, 
            40, 
            17, 
            8, 
            30, 
            36, 
            26, 
            52, 
            40, 
            22, 
            42, 
            0, 
            32, 
            45
        ], 
        [
            34, 
            27, 
            10, 
            34, 
            25, 
            24, 
            21, 
            14, 
            25, 
            13, 
            19, 
            29, 
            32, 
            0, 
            19
        ], 
        [
            50, 
            45, 
            9, 
            51, 
            37, 
            43, 
            39, 
            20, 
            6, 
            28, 
            25, 
            47, 
            45, 
            19, 
            0
        ]
    ], 
    "driver_wage": 0.0022, 
    "fix_time": 300, 
    "fuel_cons": 3, 
    "fuel_cost": 1.4, 
    "loss_factor": 1, 
    "mass": 600, 
    "month_days": [
        28, 
        25, 
        28, 
        27, 
        28, 
        27, 
        28, 
        28, 
        27, 
        28, 
        27, 
        28
    ], 
    "opening_time": 12, 
    "refr_fuel": 12000, 
    "row_q": 3, 
    "row_time": 3, 
    "speed_ranges": [
        [
            0, 
            1, 
            -0.0, 
            70.0, 
            70
        ], 
        [
            1, 
            2, 
            0, 
            70.0, 
            70
        ], 
        [
            2, 
            3, 
            0, 
            70.0, 
            70
        ], 
        [
            3, 
            4, 
            0, 
            70.0, 
            70
        ], 
        [
            4, 
            5, 
            0, 
            70.0, 
            70
        ], 
        [
            5, 
            6, 
            0, 
            70.0, 
            70
        ], 
        [
            6, 
            7, 
            0, 
            70.0, 
            70
        ], 
        [
            7, 
            8, 
            -40.0, 
            350.0, 
            30
        ], 
        [
            8, 
            9, 
            20.0, 
            -130.0, 
            50
        ], 
        [
            9, 
            10, 
            20.0, 
            -130.0, 
            70
        ], 
        [
            10, 
            11, 
            -20.0, 
            270.0, 
            50
        ], 
        [
            11, 
            12, 
            -20.0, 
            270.0, 
            30
        ], 
        [
            12, 
            13, 
            20.0, 
            -210.0, 
            50
        ], 
        [
            13, 
            14, 
            20.0, 
            -210.0, 
            70
        ], 
        [
            14, 
            15, 
            0, 
            70.0, 
            70
        ], 
        [
            15, 
            16, 
            -20.0, 
            370.0, 
            50
        ], 
        [
            16, 
            17, 
            0, 
            50.0, 
            50
        ], 
        [
            17, 
            18, 
            -20.0, 
            390.0, 
            30
        ], 
        [
            18, 
            19, 
            0, 
            30.0, 
            30
        ], 
        [
            19, 
            20, 
            20.0, 
            -350.0, 
            50
        ], 
        [
            20, 
            21, 
            20.0, 
            -350.0, 
            70
        ], 
        [
            21, 
            22, 
            0, 
            70.0, 
            70
        ], 
        [
            22, 
            23, 
            0, 
            70.0, 
            70
        ], 
        [
            23, 
            24, 
            0, 
            70.0, 
            70
        ]
    ], 
    "start_time": 7, 
    "surface": 150, 
    "temperature_ranges": [
        [
            0, 
            1, 
            -0.3, 
            2.4, 
            2.1, 
            981.86, 
            3.49, 
            1.46, 
            0.72
        ], 
        [
            1, 
            2, 
            -0.1, 
            2.2, 
            2, 
            976.84, 
            3.47, 
            1.45, 
            0.65
        ], 
        [
            2, 
            3, 
            -0.1, 
            2.2, 
            1.9, 
            971.8, 
            3.46, 
            1.45, 
            0.72
        ], 
        [
            3, 
            4, 
            -0.1, 
            2.2, 
            1.8, 
            966.76, 
            3.44, 
            1.44, 
            0.72
        ], 
        [
            4, 
            5, 
            -0.1, 
            2.2, 
            1.7, 
            961.71, 
            3.42, 
            1.43, 
            0.73
        ], 
        [
            5, 
            6, 
            0.0, 
            1.7, 
            1.7, 
            961.71, 
            3.42, 
            1.43, 
            0.73
        ], 
        [
            6, 
            7, 
            -0.1, 
            2.3, 
            1.6, 
            956.66, 
            3.4, 
            1.43, 
            0.73
        ], 
        [
            7, 
            8, 
            1.5, 
            -8.9, 
            3.1, 
            1031.65, 
            3.67, 
            1.52, 
            0.7
        ], 
        [
            8, 
            9, 
            1.6, 
            -9.7, 
            4.7, 
            1109.62, 
            3.95, 
            1.63, 
            0.67
        ], 
        [
            9, 
            10, 
            1.5, 
            -8.8, 
            6.2, 
            1180.8, 
            4.21, 
            1.73, 
            0.65
        ], 
        [
            10, 
            11, 
            1.1, 
            -4.8, 
            7.3, 
            1231.83, 
            4.4, 
            1.8, 
            0.63
        ], 
        [
            11, 
            12, 
            0.8, 
            -1.5, 
            8.1, 
            1268.31, 
            4.53, 
            1.85, 
            0.62
        ], 
        [
            12, 
            13, 
            0.4, 
            3.3, 
            8.5, 
            1286.36, 
            4.6, 
            1.88, 
            0.61
        ], 
        [
            13, 
            14, 
            -0.1, 
            9.8, 
            8.4, 
            1281.86, 
            4.58, 
            1.87, 
            0.61
        ], 
        [
            14, 
            15, 
            -1.0, 
            22.4, 
            7.4, 
            1236.42, 
            4.41, 
            1.81, 
            0.63
        ], 
        [
            15, 
            16, 
            -2.0, 
            37.4, 
            5.4, 
            1143.07, 
            4.07, 
            1.68, 
            0.66
        ], 
        [
            16, 
            17, 
            -1.2, 
            24.6, 
            4.2, 
            1085.48, 
            3.86, 
            1.6, 
            0.68
        ], 
        [
            17, 
            18, 
            -0.5, 
            12.7, 
            3.7, 
            1061.14, 
            3.77, 
            1.56, 
            0.69
        ], 
        [
            18, 
            19, 
            -0.4, 
            10.9, 
            3.3, 
            1041.52, 
            3.7, 
            1.54, 
            0.7
        ], 
        [
            19, 
            20, 
            -0.4, 
            10.9, 
            2.9, 
            1021.76, 
            3.63, 
            1.51, 
            0.7
        ], 
        [
            20, 
            21, 
            -0.2, 
            6.9, 
            2.7, 
            1011.84, 
            3.6, 
            1.5, 
            0.71
        ], 
        [
            21, 
            22, 
            -0.1, 
            4.8, 
            2.6, 
            1006.86, 
            3.58, 
            1.49, 
            0.71
        ], 
        [
            22, 
            23, 
            -0.1, 
            4.8, 
            2.5, 
            1001.88, 
            3.56, 
            1.49, 
            0.71
        ], 
        [
            23, 
            24, 
            -0.1, 
            4.8, 
            2.4, 
            996.89, 
            3.54, 
            1.48, 
            0.71
        ], 
        [
            0, 
            1, 
            -0.2, 
            1.6, 
            1.4, 
            946.52, 
            3.37, 
            1.41, 
            0.73
        ], 
        [
            1, 
            2, 
            -0.2, 
            1.6, 
            1.2, 
            936.34, 
            3.33, 
            1.4, 
            0.74
        ], 
        [
            2, 
            3, 
            -0.2, 
            1.6, 
            1, 
            926.14, 
            3.3, 
            1.39, 
            0.65
        ], 
        [
            3, 
            4, 
            -0.1, 
            1.3, 
            0.9, 
            921.02, 
            3.28, 
            1.38, 
            0.74
        ], 
        [
            4, 
            5, 
            -0.2, 
            1.7, 
            0.7, 
            910.77, 
            3.24, 
            1.37, 
            0.75
        ], 
        [
            5, 
            6, 
            0.0, 
            0.7, 
            0.7, 
            910.77, 
            3.24, 
            1.37, 
            0.75
        ], 
        [
            6, 
            7, 
            0.9, 
            -4.7, 
            1.6, 
            956.66, 
            3.4, 
            1.43, 
            0.73
        ], 
        [
            7, 
            8, 
            2.3, 
            -14.5, 
            3.9, 
            1070.9, 
            3.81, 
            1.58, 
            0.69
        ], 
        [
            8, 
            9, 
            2.1, 
            -12.9, 
            6, 
            1171.42, 
            4.17, 
            1.72, 
            0.65
        ], 
        [
            9, 
            10, 
            2.0, 
            -12.0, 
            8, 
            1263.78, 
            4.52, 
            1.85, 
            0.54
        ], 
        [
            10, 
            11, 
            1.4, 
            -6.0, 
            9.4, 
            1326.48, 
            4.75, 
            1.94, 
            0.6
        ], 
        [
            11, 
            12, 
            0.9, 
            -0.5, 
            10.3, 
            1365.94, 
            4.91, 
            2.0, 
            0.59
        ], 
        [
            12, 
            13, 
            0.4, 
            5.5, 
            10.7, 
            1383.26, 
            4.97, 
            2.03, 
            0.58
        ], 
        [
            13, 
            14, 
            0.0, 
            10.7, 
            10.7, 
            1383.26, 
            4.97, 
            2.03, 
            0.58
        ], 
        [
            14, 
            15, 
            -0.6, 
            19.1, 
            10.1, 
            1357.23, 
            4.87, 
            1.99, 
            0.59
        ], 
        [
            15, 
            16, 
            -1.9, 
            38.6, 
            8.2, 
            1272.84, 
            4.55, 
            1.86, 
            0.62
        ], 
        [
            16, 
            17, 
            -2.7, 
            51.4, 
            5.5, 
            1147.81, 
            4.09, 
            1.68, 
            0.66
        ], 
        [
            17, 
            18, 
            -1.4, 
            29.3, 
            4.1, 
            1080.63, 
            3.84, 
            1.59, 
            0.68
        ], 
        [
            18, 
            19, 
            -0.6, 
            14.9, 
            3.5, 
            1051.34, 
            3.74, 
            1.55, 
            0.69
        ], 
        [
            19, 
            20, 
            -0.6, 
            14.9, 
            2.9, 
            1021.76, 
            3.63, 
            1.51, 
            0.7
        ], 
        [
            20, 
            21, 
            -0.3, 
            8.9, 
            2.6, 
            1006.86, 
            3.58, 
            1.49, 
            0.71
        ], 
        [
            21, 
            22, 
            -0.4, 
            11.0, 
            2.2, 
            986.88, 
            3.51, 
            1.47, 
            0.72
        ], 
        [
            22, 
            23, 
            -0.3, 
            8.8, 
            1.9, 
            971.8, 
            3.46, 
            1.45, 
            0.72
        ], 
        [
            23, 
            24, 
            -0.3, 
            8.8, 
            1.6, 
            956.66, 
            3.4, 
            1.43, 
            0.73
        ], 
        [
            0, 
            1, 
            -0.4, 
            5.3, 
            4.9, 
            1119.22, 
            3.98, 
            1.64, 
            0.67
        ], 
        [
            1, 
            2, 
            -0.2, 
            5.1, 
            4.7, 
            1109.62, 
            3.95, 
            1.63, 
            0.67
        ], 
        [
            2, 
            3, 
            -0.4, 
            5.5, 
            4.3, 
            1090.32, 
            3.88, 
            1.6, 
            0.68
        ], 
        [
            3, 
            4, 
            -0.2, 
            4.9, 
            4.1, 
            1080.63, 
            3.84, 
            1.59, 
            0.68
        ], 
        [
            4, 
            5, 
            -0.2, 
            4.9, 
            3.9, 
            1070.9, 
            3.81, 
            1.58, 
            0.69
        ], 
        [
            5, 
            6, 
            0.6, 
            0.9, 
            4.5, 
            1099.99, 
            3.91, 
            1.62, 
            0.67
        ], 
        [
            6, 
            7, 
            2.5, 
            -10.5, 
            7, 
            1218.01, 
            4.34, 
            1.78, 
            0.54
        ], 
        [
            7, 
            8, 
            2.3, 
            -9.1, 
            9.3, 
            1322.06, 
            4.74, 
            1.93, 
            0.6
        ], 
        [
            8, 
            9, 
            1.8, 
            -5.1, 
            11.1, 
            1400.45, 
            5.04, 
            2.05, 
            0.58
        ], 
        [
            9, 
            10, 
            1.5, 
            -2.4, 
            12.6, 
            1463.75, 
            5.29, 
            2.15, 
            0.56
        ], 
        [
            10, 
            11, 
            0.6, 
            6.6, 
            13.2, 
            1488.56, 
            5.39, 
            2.19, 
            0.55
        ], 
        [
            11, 
            12, 
            0.8, 
            4.4, 
            14, 
            1521.17, 
            5.52, 
            2.24, 
            0.54
        ], 
        [
            12, 
            13, 
            0.1, 
            12.8, 
            14.1, 
            1525.21, 
            5.54, 
            2.25, 
            0.54
        ], 
        [
            13, 
            14, 
            -0.2, 
            16.7, 
            13.9, 
            1517.12, 
            5.5, 
            2.24, 
            0.55
        ], 
        [
            14, 
            15, 
            -0.9, 
            26.5, 
            13, 
            1480.32, 
            5.36, 
            2.18, 
            0.54
        ], 
        [
            15, 
            16, 
            -1.1, 
            29.5, 
            11.9, 
            1434.44, 
            5.17, 
            2.11, 
            0.57
        ], 
        [
            16, 
            17, 
            -1.6, 
            37.5, 
            10.3, 
            1365.94, 
            4.91, 
            2.0, 
            0.59
        ], 
        [
            17, 
            18, 
            -1.8, 
            40.9, 
            8.5, 
            1286.36, 
            4.6, 
            1.88, 
            0.61
        ], 
        [
            18, 
            19, 
            -1.1, 
            28.3, 
            7.4, 
            1236.42, 
            4.41, 
            1.81, 
            0.63
        ], 
        [
            19, 
            20, 
            -0.6, 
            18.8, 
            6.8, 
            1208.76, 
            4.31, 
            1.77, 
            0.64
        ], 
        [
            20, 
            21, 
            -0.5, 
            16.8, 
            6.3, 
            1185.48, 
            4.22, 
            1.74, 
            0.65
        ], 
        [
            21, 
            22, 
            -0.4, 
            14.7, 
            5.9, 
            1166.71, 
            4.16, 
            1.71, 
            0.65
        ], 
        [
            22, 
            23, 
            -0.3, 
            12.5, 
            5.6, 
            1152.55, 
            4.1, 
            1.69, 
            0.66
        ], 
        [
            23, 
            24, 
            -0.3, 
            12.5, 
            5.3, 
            1138.31, 
            4.05, 
            1.67, 
            0.66
        ], 
        [
            0, 
            1, 
            -0.3, 
            10.0, 
            9.7, 
            1339.71, 
            4.8, 
            1.96, 
            0.6
        ], 
        [
            1, 
            2, 
            -0.2, 
            9.9, 
            9.5, 
            1330.9, 
            4.77, 
            1.95, 
            0.6
        ], 
        [
            2, 
            3, 
            -0.1, 
            9.7, 
            9.4, 
            1326.48, 
            4.75, 
            1.94, 
            0.6
        ], 
        [
            3, 
            4, 
            -0.1, 
            9.7, 
            9.3, 
            1322.06, 
            4.74, 
            1.93, 
            0.6
        ], 
        [
            4, 
            5, 
            0.2, 
            8.5, 
            9.5, 
            1330.9, 
            4.77, 
            1.95, 
            0.6
        ], 
        [
            5, 
            6, 
            1.7, 
            1.0, 
            11.2, 
            1404.73, 
            5.06, 
            2.06, 
            0.58
        ], 
        [
            6, 
            7, 
            2.3, 
            -2.6, 
            13.5, 
            1500.85, 
            5.44, 
            2.21, 
            0.55
        ], 
        [
            7, 
            8, 
            2.3, 
            -2.6, 
            15.8, 
            1592.62, 
            5.82, 
            2.36, 
            0.52
        ], 
        [
            8, 
            9, 
            2.0, 
            -0.2, 
            17.8, 
            1668.89, 
            6.14, 
            2.49, 
            0.5
        ], 
        [
            9, 
            10, 
            1.4, 
            5.2, 
            19.2, 
            1720.33, 
            6.36, 
            2.59, 
            0.49
        ], 
        [
            10, 
            11, 
            0.5, 
            14.2, 
            19.7, 
            1738.31, 
            6.44, 
            2.62, 
            0.49
        ], 
        [
            11, 
            12, 
            0.4, 
            15.3, 
            20.1, 
            1752.55, 
            6.51, 
            2.65, 
            0.48
        ], 
        [
            12, 
            13, 
            -0.2, 
            22.5, 
            19.9, 
            1745.44, 
            6.48, 
            2.63, 
            0.49
        ], 
        [
            13, 
            14, 
            -0.7, 
            29.0, 
            19.2, 
            1720.33, 
            6.36, 
            2.59, 
            0.49
        ], 
        [
            14, 
            15, 
            -0.5, 
            26.2, 
            18.7, 
            1702.14, 
            6.28, 
            2.55, 
            0.5
        ], 
        [
            15, 
            16, 
            -1.1, 
            35.2, 
            17.6, 
            1661.41, 
            6.11, 
            2.48, 
            0.51
        ], 
        [
            16, 
            17, 
            -1.6, 
            43.2, 
            16, 
            1600.4, 
            5.85, 
            2.38, 
            0.43
        ], 
        [
            17, 
            18, 
            -2.1, 
            51.7, 
            13.9, 
            1517.12, 
            5.5, 
            2.24, 
            0.55
        ], 
        [
            18, 
            19, 
            -1.5, 
            40.9, 
            12.4, 
            1455.42, 
            5.26, 
            2.14, 
            0.56
        ], 
        [
            19, 
            20, 
            -0.9, 
            29.5, 
            11.5, 
            1417.51, 
            5.11, 
            2.08, 
            0.57
        ], 
        [
            20, 
            21, 
            -0.6, 
            23.5, 
            10.9, 
            1391.87, 
            5.01, 
            2.04, 
            0.58
        ], 
        [
            21, 
            22, 
            -0.3, 
            17.2, 
            10.6, 
            1378.94, 
            4.96, 
            2.02, 
            0.58
        ], 
        [
            22, 
            23, 
            -0.4, 
            19.4, 
            10.2, 
            1361.59, 
            4.89, 
            1.99, 
            0.59
        ], 
        [
            23, 
            24, 
            -0.2, 
            14.8, 
            10, 
            1352.86, 
            4.86, 
            1.98, 
            0.54
        ], 
        [
            0, 
            1, 
            -0.3, 
            14.9, 
            14.6, 
            1545.28, 
            5.62, 
            2.28, 
            0.54
        ], 
        [
            1, 
            2, 
            -0.3, 
            14.9, 
            14.3, 
            1533.26, 
            5.57, 
            2.26, 
            0.54
        ], 
        [
            2, 
            3, 
            -0.4, 
            15.1, 
            13.9, 
            1517.12, 
            5.5, 
            2.24, 
            0.55
        ], 
        [
            3, 
            4, 
            -0.1, 
            14.2, 
            13.8, 
            1513.06, 
            5.49, 
            2.23, 
            0.55
        ], 
        [
            4, 
            5, 
            1.3, 
            8.6, 
            15.1, 
            1565.15, 
            5.7, 
            2.32, 
            0.53
        ], 
        [
            5, 
            6, 
            2.6, 
            2.1, 
            17.7, 
            1665.16, 
            6.12, 
            2.49, 
            0.51
        ], 
        [
            6, 
            7, 
            2.6, 
            2.1, 
            20.3, 
            1759.62, 
            6.54, 
            2.66, 
            0.48
        ], 
        [
            7, 
            8, 
            2.6, 
            2.1, 
            22.9, 
            1848.52, 
            6.95, 
            2.83, 
            0.46
        ], 
        [
            8, 
            9, 
            1.8, 
            8.5, 
            24.7, 
            1906.82, 
            7.23, 
            2.95, 
            0.45
        ], 
        [
            9, 
            10, 
            1.0, 
            15.7, 
            25.7, 
            1938.06, 
            7.38, 
            3.02, 
            0.44
        ], 
        [
            10, 
            11, 
            1.0, 
            15.7, 
            26.7, 
            1968.48, 
            7.53, 
            3.08, 
            0.43
        ], 
        [
            11, 
            12, 
            0.7, 
            19.0, 
            27.4, 
            1989.29, 
            7.64, 
            3.13, 
            0.43
        ], 
        [
            12, 
            13, 
            -0.1, 
            28.6, 
            27.3, 
            1986.34, 
            7.62, 
            3.12, 
            0.43
        ], 
        [
            13, 
            14, 
            -0.4, 
            32.5, 
            26.9, 
            1974.47, 
            7.56, 
            3.1, 
            0.43
        ], 
        [
            14, 
            15, 
            -0.7, 
            36.7, 
            26.2, 
            1953.38, 
            7.46, 
            3.05, 
            0.44
        ], 
        [
            15, 
            16, 
            -1.5, 
            48.7, 
            24.7, 
            1906.82, 
            7.23, 
            2.95, 
            0.45
        ], 
        [
            16, 
            17, 
            -2.1, 
            58.3, 
            22.6, 
            1838.55, 
            6.9, 
            2.81, 
            0.46
        ], 
        [
            17, 
            18, 
            -2.3, 
            61.7, 
            20.3, 
            1759.62, 
            6.54, 
            2.66, 
            0.48
        ], 
        [
            18, 
            19, 
            -2.2, 
            59.9, 
            18.1, 
            1680.05, 
            6.19, 
            2.51, 
            0.5
        ], 
        [
            19, 
            20, 
            -1.3, 
            42.8, 
            16.8, 
            1631.17, 
            5.98, 
            2.43, 
            0.51
        ], 
        [
            20, 
            21, 
            -0.8, 
            32.8, 
            16, 
            1600.4, 
            5.85, 
            2.38, 
            0.43
        ], 
        [
            21, 
            22, 
            -0.4, 
            24.4, 
            15.6, 
            1584.81, 
            5.78, 
            2.35, 
            0.53
        ], 
        [
            22, 
            23, 
            -0.4, 
            24.4, 
            15.2, 
            1569.1, 
            5.72, 
            2.32, 
            0.53
        ], 
        [
            23, 
            24, 
            -0.3, 
            22.1, 
            14.9, 
            1557.23, 
            5.67, 
            2.3, 
            0.53
        ], 
        [
            0, 
            1, 
            -0.6, 
            18.0, 
            17.4, 
            1653.9, 
            6.08, 
            2.47, 
            0.51
        ], 
        [
            1, 
            2, 
            -0.4, 
            17.8, 
            17, 
            1638.78, 
            6.01, 
            2.44, 
            0.43
        ], 
        [
            2, 
            3, 
            -0.3, 
            17.6, 
            16.7, 
            1627.35, 
            5.96, 
            2.42, 
            0.52
        ], 
        [
            3, 
            4, 
            0.2, 
            16.1, 
            16.9, 
            1634.98, 
            5.99, 
            2.44, 
            0.51
        ], 
        [
            4, 
            5, 
            1.5, 
            10.9, 
            18.4, 
            1691.13, 
            6.24, 
            2.53, 
            0.5
        ], 
        [
            5, 
            6, 
            2.2, 
            7.4, 
            20.6, 
            1770.16, 
            6.59, 
            2.68, 
            0.48
        ], 
        [
            6, 
            7, 
            2.1, 
            8.0, 
            22.7, 
            1841.88, 
            6.92, 
            2.82, 
            0.46
        ], 
        [
            7, 
            8, 
            1.9, 
            9.4, 
            24.6, 
            1903.66, 
            7.21, 
            2.94, 
            0.45
        ], 
        [
            8, 
            9, 
            1.9, 
            9.4, 
            26.5, 
            1962.46, 
            7.5, 
            3.07, 
            0.43
        ], 
        [
            9, 
            10, 
            1.3, 
            14.8, 
            27.8, 
            2001.0, 
            7.7, 
            3.15, 
            0.42
        ], 
        [
            10, 
            11, 
            0.7, 
            20.8, 
            28.5, 
            2021.17, 
            7.8, 
            3.2, 
            0.42
        ], 
        [
            11, 
            12, 
            0.4, 
            24.1, 
            28.9, 
            2032.51, 
            7.86, 
            3.23, 
            0.42
        ], 
        [
            12, 
            13, 
            0.0, 
            28.9, 
            28.9, 
            2032.51, 
            7.86, 
            3.23, 
            0.42
        ], 
        [
            13, 
            14, 
            -0.7, 
            38.0, 
            28.2, 
            2012.57, 
            7.76, 
            3.18, 
            0.42
        ], 
        [
            14, 
            15, 
            -0.8, 
            39.4, 
            27.4, 
            1989.29, 
            7.64, 
            3.13, 
            0.43
        ], 
        [
            15, 
            16, 
            -1.3, 
            46.9, 
            26.1, 
            1950.33, 
            7.44, 
            3.04, 
            0.44
        ], 
        [
            16, 
            17, 
            -1.4, 
            48.5, 
            24.7, 
            1906.82, 
            7.23, 
            2.95, 
            0.45
        ], 
        [
            17, 
            18, 
            -1.9, 
            57.0, 
            22.8, 
            1845.21, 
            6.93, 
            2.82, 
            0.46
        ], 
        [
            18, 
            19, 
            -2.0, 
            58.8, 
            20.8, 
            1777.14, 
            6.62, 
            2.69, 
            0.48
        ], 
        [
            19, 
            20, 
            -1.2, 
            43.6, 
            19.6, 
            1734.73, 
            6.43, 
            2.61, 
            0.49
        ], 
        [
            20, 
            21, 
            -0.5, 
            29.6, 
            19.1, 
            1716.71, 
            6.35, 
            2.58, 
            0.49
        ], 
        [
            21, 
            22, 
            -0.4, 
            27.5, 
            18.7, 
            1702.14, 
            6.28, 
            2.55, 
            0.5
        ], 
        [
            22, 
            23, 
            -0.4, 
            27.5, 
            18.3, 
            1687.45, 
            6.22, 
            2.53, 
            0.5
        ], 
        [
            23, 
            24, 
            -0.3, 
            25.2, 
            18, 
            1676.34, 
            6.17, 
            2.51, 
            0.43
        ], 
        [
            0, 
            1, 
            -0.2, 
            18.9, 
            18.7, 
            1702.14, 
            6.28, 
            2.55, 
            0.5
        ], 
        [
            1, 
            2, 
            -0.4, 
            19.1, 
            18.3, 
            1687.45, 
            6.22, 
            2.53, 
            0.5
        ], 
        [
            2, 
            3, 
            -0.3, 
            18.9, 
            18, 
            1676.34, 
            6.17, 
            2.51, 
            0.43
        ], 
        [
            3, 
            4, 
            0.0, 
            18.0, 
            18, 
            1676.34, 
            6.17, 
            2.51, 
            0.43
        ], 
        [
            4, 
            5, 
            1.4, 
            12.4, 
            19.4, 
            1727.55, 
            6.4, 
            2.6, 
            0.49
        ], 
        [
            5, 
            6, 
            2.5, 
            6.9, 
            21.9, 
            1814.99, 
            6.79, 
            2.77, 
            0.47
        ], 
        [
            6, 
            7, 
            2.7, 
            5.7, 
            24.6, 
            1903.66, 
            7.21, 
            2.94, 
            0.45
        ], 
        [
            7, 
            8, 
            2.4, 
            7.8, 
            27, 
            1977.45, 
            7.58, 
            3.1, 
            0.43
        ], 
        [
            8, 
            9, 
            2.3, 
            8.6, 
            29.3, 
            2043.73, 
            7.92, 
            3.25, 
            0.41
        ], 
        [
            9, 
            10, 
            1.4, 
            16.7, 
            30.7, 
            2081.95, 
            8.13, 
            3.35, 
            0.41
        ], 
        [
            10, 
            11, 
            0.9, 
            21.7, 
            31.6, 
            2105.67, 
            8.26, 
            3.41, 
            0.4
        ], 
        [
            11, 
            12, 
            0.1, 
            30.5, 
            31.7, 
            2108.26, 
            8.28, 
            3.41, 
            0.4
        ], 
        [
            12, 
            13, 
            -0.1, 
            32.9, 
            31.6, 
            2105.67, 
            8.26, 
            3.41, 
            0.4
        ], 
        [
            13, 
            14, 
            -0.7, 
            40.7, 
            30.9, 
            2087.28, 
            8.16, 
            3.36, 
            0.4
        ], 
        [
            14, 
            15, 
            -0.5, 
            37.9, 
            30.4, 
            2073.89, 
            8.09, 
            3.33, 
            0.41
        ], 
        [
            15, 
            16, 
            -1.4, 
            51.4, 
            29, 
            2035.33, 
            7.88, 
            3.23, 
            0.32
        ], 
        [
            16, 
            17, 
            -1.9, 
            59.4, 
            27.1, 
            1980.42, 
            7.59, 
            3.11, 
            0.43
        ], 
        [
            17, 
            18, 
            -2.4, 
            67.9, 
            24.7, 
            1906.82, 
            7.23, 
            2.95, 
            0.45
        ], 
        [
            18, 
            19, 
            -2.6, 
            71.5, 
            22.1, 
            1821.76, 
            6.82, 
            2.78, 
            0.47
        ], 
        [
            19, 
            20, 
            -1.3, 
            46.8, 
            20.8, 
            1777.14, 
            6.62, 
            2.69, 
            0.48
        ], 
        [
            20, 
            21, 
            -0.7, 
            34.8, 
            20.1, 
            1752.55, 
            6.51, 
            2.65, 
            0.48
        ], 
        [
            21, 
            22, 
            -0.4, 
            28.5, 
            19.7, 
            1738.31, 
            6.44, 
            2.62, 
            0.49
        ], 
        [
            22, 
            23, 
            -0.5, 
            30.7, 
            19.2, 
            1720.33, 
            6.36, 
            2.59, 
            0.49
        ], 
        [
            23, 
            24, 
            -0.3, 
            26.1, 
            18.9, 
            1709.44, 
            6.32, 
            2.57, 
            0.49
        ], 
        [
            0, 
            1, 
            -0.2, 
            19.0, 
            18.8, 
            1705.8, 
            6.3, 
            2.56, 
            0.5
        ], 
        [
            1, 
            2, 
            -0.3, 
            19.1, 
            18.5, 
            1694.81, 
            6.25, 
            2.54, 
            0.5
        ], 
        [
            2, 
            3, 
            -0.2, 
            18.9, 
            18.3, 
            1687.45, 
            6.22, 
            2.53, 
            0.5
        ], 
        [
            3, 
            4, 
            -0.3, 
            19.2, 
            18, 
            1676.34, 
            6.17, 
            2.51, 
            0.43
        ], 
        [
            4, 
            5, 
            0.8, 
            14.8, 
            18.8, 
            1705.8, 
            6.3, 
            2.56, 
            0.5
        ], 
        [
            5, 
            6, 
            2.5, 
            6.3, 
            21.3, 
            1794.47, 
            6.7, 
            2.73, 
            0.47
        ], 
        [
            6, 
            7, 
            3.3, 
            1.5, 
            24.6, 
            1903.66, 
            7.21, 
            2.94, 
            0.45
        ], 
        [
            7, 
            8, 
            2.9, 
            4.3, 
            27.5, 
            1992.23, 
            7.65, 
            3.13, 
            0.43
        ], 
        [
            8, 
            9, 
            2.3, 
            9.1, 
            29.8, 
            2057.56, 
            8.0, 
            3.29, 
            0.41
        ], 
        [
            9, 
            10, 
            1.5, 
            16.3, 
            31.3, 
            2097.83, 
            8.22, 
            3.39, 
            0.4
        ], 
        [
            10, 
            11, 
            1.1, 
            20.3, 
            32.4, 
            2126.19, 
            8.38, 
            3.46, 
            0.4
        ], 
        [
            11, 
            12, 
            0.5, 
            26.9, 
            32.9, 
            2138.75, 
            8.45, 
            3.49, 
            0.39
        ], 
        [
            12, 
            13, 
            0.5, 
            26.9, 
            33.4, 
            2151.11, 
            8.53, 
            3.52, 
            0.39
        ], 
        [
            13, 
            14, 
            -0.5, 
            39.9, 
            32.9, 
            2138.75, 
            8.45, 
            3.49, 
            0.39
        ], 
        [
            14, 
            15, 
            -1.0, 
            46.9, 
            31.9, 
            2113.43, 
            8.31, 
            3.43, 
            0.4
        ], 
        [
            15, 
            16, 
            -1.3, 
            51.4, 
            30.6, 
            2079.27, 
            8.12, 
            3.34, 
            0.41
        ], 
        [
            16, 
            17, 
            -2.8, 
            75.4, 
            27.8, 
            2001.0, 
            7.7, 
            3.15, 
            0.42
        ], 
        [
            17, 
            18, 
            -3.9, 
            94.1, 
            23.9, 
            1881.24, 
            7.1, 
            2.9, 
            0.45
        ], 
        [
            18, 
            19, 
            -2.6, 
            70.7, 
            21.3, 
            1794.47, 
            6.7, 
            2.73, 
            0.47
        ], 
        [
            19, 
            20, 
            -0.8, 
            36.5, 
            20.5, 
            1766.65, 
            6.57, 
            2.67, 
            0.48
        ], 
        [
            20, 
            21, 
            -0.6, 
            32.5, 
            19.9, 
            1745.44, 
            6.48, 
            2.63, 
            0.49
        ], 
        [
            21, 
            22, 
            -0.3, 
            26.2, 
            19.6, 
            1734.73, 
            6.43, 
            2.61, 
            0.49
        ], 
        [
            22, 
            23, 
            -0.4, 
            28.4, 
            19.2, 
            1720.33, 
            6.36, 
            2.59, 
            0.49
        ], 
        [
            23, 
            24, 
            -0.2, 
            23.8, 
            19, 
            1713.08, 
            6.33, 
            2.57, 
            0.43
        ], 
        [
            0, 
            1, 
            -0.1, 
            14.5, 
            14.4, 
            1537.28, 
            5.59, 
            2.27, 
            0.54
        ], 
        [
            1, 
            2, 
            -0.2, 
            14.6, 
            14.2, 
            1529.24, 
            5.55, 
            2.26, 
            0.54
        ], 
        [
            2, 
            3, 
            -0.4, 
            15.0, 
            13.8, 
            1513.06, 
            5.49, 
            2.23, 
            0.55
        ], 
        [
            3, 
            4, 
            -0.3, 
            14.7, 
            13.5, 
            1500.85, 
            5.44, 
            2.21, 
            0.55
        ], 
        [
            4, 
            5, 
            -0.2, 
            14.3, 
            13.3, 
            1492.66, 
            5.41, 
            2.2, 
            0.55
        ], 
        [
            5, 
            6, 
            1.9, 
            3.8, 
            15.2, 
            1569.1, 
            5.72, 
            2.32, 
            0.53
        ], 
        [
            6, 
            7, 
            3.2, 
            -4.0, 
            18.4, 
            1691.13, 
            6.24, 
            2.53, 
            0.5
        ], 
        [
            7, 
            8, 
            2.9, 
            -1.9, 
            21.3, 
            1794.47, 
            6.7, 
            2.73, 
            0.47
        ], 
        [
            8, 
            9, 
            2.7, 
            -0.3, 
            24, 
            1884.47, 
            7.12, 
            2.9, 
            0.43
        ], 
        [
            9, 
            10, 
            1.9, 
            6.9, 
            25.9, 
            1944.21, 
            7.41, 
            3.03, 
            0.44
        ], 
        [
            10, 
            11, 
            0.9, 
            16.9, 
            26.8, 
            1971.48, 
            7.55, 
            3.09, 
            0.43
        ], 
        [
            11, 
            12, 
            0.5, 
            21.3, 
            27.3, 
            1986.34, 
            7.62, 
            3.12, 
            0.43
        ], 
        [
            12, 
            13, 
            0.4, 
            22.5, 
            27.7, 
            1998.08, 
            7.68, 
            3.15, 
            0.43
        ], 
        [
            13, 
            14, 
            -1.1, 
            42.0, 
            26.6, 
            1965.48, 
            7.52, 
            3.08, 
            0.43
        ], 
        [
            14, 
            15, 
            -1.2, 
            43.4, 
            25.4, 
            1928.78, 
            7.33, 
            3.0, 
            0.44
        ], 
        [
            15, 
            16, 
            -1.9, 
            53.9, 
            23.5, 
            1868.25, 
            7.04, 
            2.87, 
            0.46
        ], 
        [
            16, 
            17, 
            -3.6, 
            81.1, 
            19.9, 
            1745.44, 
            6.48, 
            2.63, 
            0.49
        ], 
        [
            17, 
            18, 
            -3.0, 
            70.9, 
            16.9, 
            1634.98, 
            5.99, 
            2.44, 
            0.51
        ], 
        [
            18, 
            19, 
            -1.1, 
            36.7, 
            15.8, 
            1592.62, 
            5.82, 
            2.36, 
            0.52
        ], 
        [
            19, 
            20, 
            -0.2, 
            19.6, 
            15.6, 
            1584.81, 
            5.78, 
            2.35, 
            0.53
        ], 
        [
            20, 
            21, 
            -0.4, 
            23.6, 
            15.2, 
            1569.1, 
            5.72, 
            2.32, 
            0.53
        ], 
        [
            21, 
            22, 
            -0.4, 
            23.6, 
            14.8, 
            1553.25, 
            5.65, 
            2.3, 
            0.54
        ], 
        [
            22, 
            23, 
            -0.1, 
            17.0, 
            14.7, 
            1549.27, 
            5.64, 
            2.29, 
            0.54
        ], 
        [
            23, 
            24, 
            -0.2, 
            19.3, 
            14.5, 
            1541.28, 
            5.6, 
            2.28, 
            0.54
        ], 
        [
            0, 
            1, 
            0.0, 
            9.8, 
            9.8, 
            1344.1, 
            4.82, 
            1.97, 
            0.6
        ], 
        [
            1, 
            2, 
            -0.1, 
            9.9, 
            9.7, 
            1339.71, 
            4.8, 
            1.96, 
            0.6
        ], 
        [
            2, 
            3, 
            -0.3, 
            10.3, 
            9.4, 
            1326.48, 
            4.75, 
            1.94, 
            0.6
        ], 
        [
            3, 
            4, 
            -0.2, 
            10.0, 
            9.2, 
            1317.62, 
            4.72, 
            1.93, 
            0.6
        ], 
        [
            4, 
            5, 
            -0.2, 
            10.0, 
            9, 
            1308.73, 
            4.69, 
            1.91, 
            0.54
        ], 
        [
            5, 
            6, 
            0.5, 
            6.5, 
            9.5, 
            1330.9, 
            4.77, 
            1.95, 
            0.6
        ], 
        [
            6, 
            7, 
            2.6, 
            -6.1, 
            12.1, 
            1442.86, 
            5.21, 
            2.12, 
            0.57
        ], 
        [
            7, 
            8, 
            3.1, 
            -9.6, 
            15.2, 
            1569.1, 
            5.72, 
            2.32, 
            0.53
        ], 
        [
            8, 
            9, 
            2.3, 
            -3.2, 
            17.5, 
            1657.66, 
            6.09, 
            2.48, 
            0.51
        ], 
        [
            9, 
            10, 
            2.6, 
            -5.9, 
            20.1, 
            1752.55, 
            6.51, 
            2.65, 
            0.48
        ], 
        [
            10, 
            11, 
            1.4, 
            6.1, 
            21.5, 
            1801.34, 
            6.73, 
            2.74, 
            0.47
        ], 
        [
            11, 
            12, 
            0.2, 
            19.3, 
            21.7, 
            1808.18, 
            6.76, 
            2.75, 
            0.47
        ], 
        [
            12, 
            13, 
            -0.1, 
            22.9, 
            21.6, 
            1804.76, 
            6.74, 
            2.75, 
            0.47
        ], 
        [
            13, 
            14, 
            -0.9, 
            33.3, 
            20.7, 
            1773.66, 
            6.6, 
            2.69, 
            0.48
        ], 
        [
            14, 
            15, 
            -1.8, 
            45.9, 
            18.9, 
            1709.44, 
            6.32, 
            2.57, 
            0.49
        ], 
        [
            15, 
            16, 
            -3.0, 
            63.9, 
            15.9, 
            1596.51, 
            5.83, 
            2.37, 
            0.52
        ], 
        [
            16, 
            17, 
            -3.2, 
            67.1, 
            12.7, 
            1467.91, 
            5.31, 
            2.16, 
            0.56
        ], 
        [
            17, 
            18, 
            -1.3, 
            34.8, 
            11.4, 
            1413.26, 
            5.09, 
            2.07, 
            0.57
        ], 
        [
            18, 
            19, 
            -0.6, 
            22.2, 
            10.8, 
            1387.57, 
            4.99, 
            2.03, 
            0.58
        ], 
        [
            19, 
            20, 
            -0.3, 
            16.5, 
            10.5, 
            1374.62, 
            4.94, 
            2.01, 
            0.59
        ], 
        [
            20, 
            21, 
            -0.2, 
            14.5, 
            10.3, 
            1365.94, 
            4.91, 
            2.0, 
            0.59
        ], 
        [
            21, 
            22, 
            -0.2, 
            14.5, 
            10.1, 
            1357.23, 
            4.87, 
            1.99, 
            0.59
        ], 
        [
            22, 
            23, 
            0.0, 
            10.1, 
            10.1, 
            1357.23, 
            4.87, 
            1.99, 
            0.59
        ], 
        [
            23, 
            24, 
            -0.3, 
            17.0, 
            9.8, 
            1344.1, 
            4.82, 
            1.97, 
            0.6
        ], 
        [
            0, 
            1, 
            -0.2, 
            6.9, 
            6.7, 
            1204.12, 
            4.29, 
            1.76, 
            0.64
        ], 
        [
            1, 
            2, 
            0.0, 
            6.7, 
            6.7, 
            1204.12, 
            4.29, 
            1.76, 
            0.64
        ], 
        [
            2, 
            3, 
            0.0, 
            6.7, 
            6.7, 
            1204.12, 
            4.29, 
            1.76, 
            0.64
        ], 
        [
            3, 
            4, 
            -0.2, 
            7.3, 
            6.5, 
            1194.81, 
            4.26, 
            1.75, 
            0.64
        ], 
        [
            4, 
            5, 
            -0.1, 
            6.9, 
            6.4, 
            1190.15, 
            4.24, 
            1.74, 
            0.64
        ], 
        [
            5, 
            6, 
            0.0, 
            6.4, 
            6.4, 
            1190.15, 
            4.24, 
            1.74, 
            0.64
        ], 
        [
            6, 
            7, 
            0.8, 
            1.6, 
            7.2, 
            1227.23, 
            4.38, 
            1.8, 
            0.63
        ], 
        [
            7, 
            8, 
            1.7, 
            -4.7, 
            8.9, 
            1304.27, 
            4.67, 
            1.91, 
            0.61
        ], 
        [
            8, 
            9, 
            1.6, 
            -3.9, 
            10.5, 
            1374.62, 
            4.94, 
            2.01, 
            0.59
        ], 
        [
            9, 
            10, 
            1.4, 
            -2.1, 
            11.9, 
            1434.44, 
            5.17, 
            2.11, 
            0.57
        ], 
        [
            10, 
            11, 
            1.0, 
            1.9, 
            12.9, 
            1476.19, 
            5.34, 
            2.17, 
            0.56
        ], 
        [
            11, 
            12, 
            0.6, 
            6.3, 
            13.5, 
            1500.85, 
            5.44, 
            2.21, 
            0.55
        ], 
        [
            12, 
            13, 
            -0.2, 
            15.9, 
            13.3, 
            1492.66, 
            5.41, 
            2.2, 
            0.55
        ], 
        [
            13, 
            14, 
            -0.5, 
            19.8, 
            12.8, 
            1472.05, 
            5.32, 
            2.16, 
            0.56
        ], 
        [
            14, 
            15, 
            -1.5, 
            33.8, 
            11.3, 
            1409.0, 
            5.07, 
            2.07, 
            0.58
        ], 
        [
            15, 
            16, 
            -2.3, 
            45.8, 
            9, 
            1308.73, 
            4.69, 
            1.91, 
            0.54
        ], 
        [
            16, 
            17, 
            -0.9, 
            23.4, 
            8.1, 
            1268.31, 
            4.53, 
            1.85, 
            0.62
        ], 
        [
            17, 
            18, 
            -0.4, 
            14.9, 
            7.7, 
            1250.13, 
            4.46, 
            1.83, 
            0.62
        ], 
        [
            18, 
            19, 
            -0.2, 
            11.3, 
            7.5, 
            1241.0, 
            4.43, 
            1.81, 
            0.63
        ], 
        [
            19, 
            20, 
            -0.3, 
            13.2, 
            7.2, 
            1227.23, 
            4.38, 
            1.8, 
            0.63
        ], 
        [
            20, 
            21, 
            -0.1, 
            9.2, 
            7.1, 
            1222.62, 
            4.36, 
            1.79, 
            0.63
        ], 
        [
            21, 
            22, 
            -0.2, 
            11.3, 
            6.9, 
            1213.39, 
            4.33, 
            1.78, 
            0.64
        ], 
        [
            22, 
            23, 
            0.2, 
            2.5, 
            7.1, 
            1222.62, 
            4.36, 
            1.79, 
            0.63
        ], 
        [
            23, 
            24, 
            -0.2, 
            11.7, 
            6.9, 
            1213.39, 
            4.33, 
            1.78, 
            0.64
        ], 
        [
            0, 
            1, 
            0.0, 
            2.3, 
            2.3, 
            991.89, 
            3.53, 
            1.47, 
            0.71
        ], 
        [
            1, 
            2, 
            -0.1, 
            2.4, 
            2.2, 
            986.88, 
            3.51, 
            1.47, 
            0.72
        ], 
        [
            2, 
            3, 
            -0.1, 
            2.4, 
            2.1, 
            981.86, 
            3.49, 
            1.46, 
            0.72
        ], 
        [
            3, 
            4, 
            -0.1, 
            2.4, 
            2, 
            976.84, 
            3.47, 
            1.45, 
            0.65
        ], 
        [
            4, 
            5, 
            0.1, 
            1.6, 
            2.1, 
            981.86, 
            3.49, 
            1.46, 
            0.72
        ], 
        [
            5, 
            6, 
            0.0, 
            2.1, 
            2.1, 
            981.86, 
            3.49, 
            1.46, 
            0.72
        ], 
        [
            6, 
            7, 
            0.0, 
            2.1, 
            2.1, 
            981.86, 
            3.49, 
            1.46, 
            0.72
        ], 
        [
            7, 
            8, 
            1.3, 
            -7.0, 
            3.4, 
            1046.43, 
            3.72, 
            1.54, 
            0.69
        ], 
        [
            8, 
            9, 
            1.8, 
            -11.0, 
            5.2, 
            1133.55, 
            4.03, 
            1.66, 
            0.66
        ], 
        [
            9, 
            10, 
            1.6, 
            -9.2, 
            6.8, 
            1208.76, 
            4.31, 
            1.77, 
            0.64
        ], 
        [
            10, 
            11, 
            1.0, 
            -3.2, 
            7.8, 
            1254.69, 
            4.48, 
            1.83, 
            0.62
        ], 
        [
            11, 
            12, 
            0.6, 
            1.2, 
            8.4, 
            1281.86, 
            4.58, 
            1.87, 
            0.61
        ], 
        [
            12, 
            13, 
            0.1, 
            7.2, 
            8.5, 
            1286.36, 
            4.6, 
            1.88, 
            0.61
        ], 
        [
            13, 
            14, 
            -0.5, 
            15.0, 
            8, 
            1263.78, 
            4.52, 
            1.85, 
            0.54
        ], 
        [
            14, 
            15, 
            -1.4, 
            27.6, 
            6.6, 
            1199.47, 
            4.28, 
            1.76, 
            0.64
        ], 
        [
            15, 
            16, 
            -2.1, 
            38.1, 
            4.5, 
            1099.99, 
            3.91, 
            1.62, 
            0.67
        ], 
        [
            16, 
            17, 
            -0.8, 
            17.3, 
            3.7, 
            1061.14, 
            3.77, 
            1.56, 
            0.69
        ], 
        [
            17, 
            18, 
            -0.4, 
            10.5, 
            3.3, 
            1041.52, 
            3.7, 
            1.54, 
            0.7
        ], 
        [
            18, 
            19, 
            -0.2, 
            6.9, 
            3.1, 
            1031.65, 
            3.67, 
            1.52, 
            0.7
        ], 
        [
            19, 
            20, 
            -0.1, 
            5.0, 
            3, 
            1026.71, 
            3.65, 
            1.52, 
            0.65
        ], 
        [
            20, 
            21, 
            -0.1, 
            5.0, 
            2.9, 
            1021.76, 
            3.63, 
            1.51, 
            0.7
        ], 
        [
            21, 
            22, 
            -0.1, 
            5.0, 
            2.8, 
            1016.8, 
            3.62, 
            1.5, 
            0.71
        ], 
        [
            22, 
            23, 
            -0.2, 
            7.2, 
            2.6, 
            1006.86, 
            3.58, 
            1.49, 
            0.71
        ], 
        [
            23, 
            24, 
            -0.3, 
            9.5, 
            2.3, 
            991.89, 
            3.53, 
            1.47, 
            0.71
        ]
    ], 
    "time_up": 36
}
