Route: 
0 5 1 4 3 2 8 7 6 
Waiting times: 
0 0 0 494 0 0 0 0 0 
Arrival times:
25200 26040 26631 28557 29984 31799 34061 35433 38088 40686 
Stop times:
0 471 486 501 519 534 549 567 582 
Travel times:
840 120 1440 432 1296 1728 823 2088 2016 
Departure times:
25200 26511 27117 29552 30503 32333 34610 36000 38670 
Speeds:
30 30 30 50 50 50 70 50 50 

Traction Consumption : 27531.858 
Transmission Consumption : 3039.304 
Infiltration Consumption : 2868.476 
Total cost :  33439.638
