OPTIMAL
Route: 
0 1 2 3 4 
Waiting times: 
0 0 0 0 0 
Arrival times:
25200 27360 29433 31329 33448 37945 
Stop times:
0 633 696 759 825 
Travel times:
2160 1440 1200 1360 3672 
Departure times:
25200 27993 30129 32088 34273 
Speeds:
40 40 45 45 50 

Traction cost: 24260.8
Refrigeration cost: 4285.88
Driver cost: 9224.83
Total cost: 37771.5

